{
    "KPlugin": {
        "Authors": [
            {
                "Email": "",
                "Name": ""
            }
        ],
        "Category": "",
        "Description": "Provides information from and control over media players via MPRIS2",
        "Description[ar]": "يوفر معلومات من مشغلات الوسائط والتحكم فيها عبر MPRIS2",
        "Description[az]": "MPRIS2 ilə media pleyerin idarəsini və onun haqqında məlumatları təmin edir",
        "Description[be]": "Падае інфармацыю з медыяпрайгравальнікаў і кіруе імі з дапамогай MPRIS2",
        "Description[bg]": "Предоставя информация и контрол за медийни плейъри чрез MPRIS2",
        "Description[ca@valencia]": "Proporciona informació i controla els reproductors multimèdia via MPRIS2",
        "Description[ca]": "Proporciona informació i controla els reproductors multimèdia via el MPRIS2",
        "Description[cs]": "Poskytuje informace a ovládání přehrávačů médií přes MPRIS2",
        "Description[da]": "Giver information fra og kontrol over medieafspillere via MPRIS2",
        "Description[de]": "Stellt Informationen über Medienspieler unter Verwendung von MPRIS2 bereit und ermöglicht deren Steuerung",
        "Description[en_GB]": "Provides information from and control over media players via MPRIS2",
        "Description[eo]": "Provizas informojn de kaj kontrolon de amaskomunikiloj per MPRIS2",
        "Description[es]": "Proporciona información y control sobre reproductores multimedia vía MPRIS2",
        "Description[et]": "Teabe hankimine meediamängijatest ja nende juhtimine MPRIS2 kaudu",
        "Description[eu]": "Multimedia-jotzaileei buruzko informazioa ematen du eta haiek kontrolatzen ditu MPRIS2 bidez",
        "Description[fi]": "Tarjoaa mediasoitintiedot ja mediasoitinten hallinnan MPRIS2:n avulla",
        "Description[fr]": "Fournit des informations sur les lecteurs de média et les contrôle avec « MPRIS2 ».",
        "Description[hi]": "एमप्रिस२ के माध्यम से मीडिया प्लेयर से जानकारी और नियंत्रण प्रदान करता है",
        "Description[hu]": "Információkat szolgáltat és vezérli a médialejátszókat az MPRIS2-n keresztül",
        "Description[ia]": "Il provide information ex e control super media players via MPRIS2",
        "Description[id]": "Menyediakan informasi dari dan mengendalikan melalui pemutar media via MPRIS2",
        "Description[is]": "Stýrir og gefur upplýsingar um margmiðlunarspilara með MPRIS2",
        "Description[it]": "Fornisce le informazioni dai lettori multimediali e li controlla con MPRIS2",
        "Description[ja]": "MPRIS2 を通して、メディアプレーヤーからの情報を提供し、メディアプレーヤーを制御します",
        "Description[ka]": "გაძლევთ მედია დამკვრელების ინფორმაციასა და კონტროლს MPRIS2-ით",
        "Description[ko]": "MPRIS2를 통하여 미디어 재생기를 제어하고 정보 가져오기",
        "Description[lt]": "Suteikia informaciją iš MPRIS2 ir per jį valdo medijos leistuves",
        "Description[nl]": "Levert informatie uit en besturing aan mediaspelers via MPRIS2",
        "Description[nn]": "Gjev informasjon frå, og kontroll over, mediespelarar via MPRIS2-grensesnittet",
        "Description[pl]": "Dostarcza informacji z odtwarzaczy multimedialnych, a także steruje nimi przez MPRIS2",
        "Description[pt]": "Fornece informações e controla leitores multimédia através de MPRIS2",
        "Description[pt_BR]": "Fornece informações e controla leitores multimídia através de MPRIS2",
        "Description[ro]": "Furnizează informații de la și controlează lectorii multimedia prin MPRIS2",
        "Description[ru]": "Предоставление информации и управление медиапроигрывателем с помощью MPRIS2",
        "Description[sk]": "Poskytuje informácie z, a ovláda prehrávače médií cez MPRIS2",
        "Description[sl]": "Prikazuje informacije in omogoča nadzor predstavnostnih predvajalnikov prek MPRIS2",
        "Description[sv]": "Tillhandahåller information från och styrning av mediaspelare via MPRIS2",
        "Description[ta]": "MPRIS2 மூலம் ஊடக இயக்கிகளிலிருந்து விவரங்களை பெற்று அவற்றை கட்டுப்படுத்தும்",
        "Description[tr]": "MPRIS2 kullanarak çoklu ortam oynatıcılarından bilgi sağlar ve onları denetler",
        "Description[uk]": "Надає дані з мультимедійних програвачів та керує ними за допомогою MPRIS2",
        "Description[vi]": "Cung cấp thông tin của và cách điều khiển với các trình phát phương tiện thông qua MPRIS2",
        "Description[x-test]": "xxProvides information from and control over media players via MPRIS2xx",
        "Description[zh_CN]": "通过 MPRIS2 对媒体播放器进行信息获取和控制",
        "Description[zh_TW]": "透過 MPRIS2 來提供對媒體播放器的控制及其資訊",
        "Icon": "applications-multimedia",
        "License": "",
        "Name": "MPRIS2",
        "Name[ar]": "MPRIS2",
        "Name[az]": "MPRIS2",
        "Name[be]": "MPRIS2",
        "Name[bg]": "MPRIS2",
        "Name[bs]": "MPRIS2",
        "Name[ca@valencia]": "MPRIS2",
        "Name[ca]": "MPRIS2",
        "Name[cs]": "MPRIS2",
        "Name[da]": "MPRIS2",
        "Name[de]": "MPRIS2",
        "Name[el]": "MPRIS2",
        "Name[en_GB]": "MPRIS2",
        "Name[eo]": "MPRIS2",
        "Name[es]": "MPRIS2",
        "Name[et]": "MPRIS2",
        "Name[eu]": "MPRIS2",
        "Name[fi]": "MPRIS2",
        "Name[fr]": "MPRIS2",
        "Name[gl]": "MPRIS2",
        "Name[he]": "MPRIS2",
        "Name[hi]": "एमप्रिस२",
        "Name[hu]": "MPRIS2",
        "Name[ia]": "MPRIS2",
        "Name[id]": "MPRIS2",
        "Name[is]": "MPRIS2",
        "Name[it]": "MPRIS2",
        "Name[ja]": "MPRIS2",
        "Name[ka]": "MPRIS2",
        "Name[kk]": "MPRIS2",
        "Name[km]": "MPRIS2",
        "Name[ko]": "MPRIS2",
        "Name[lt]": "MPRIS2",
        "Name[ml]": "MPRIS2",
        "Name[mr]": "MPRIS2",
        "Name[nb]": "MPRIS2",
        "Name[nds]": "MPRIS2",
        "Name[nl]": "MPRIS2",
        "Name[nn]": "MPRIS2",
        "Name[pa]": "MPRIS2",
        "Name[pl]": "MPRIS2",
        "Name[pt]": "MPRIS2",
        "Name[pt_BR]": "MPRIS2",
        "Name[ro]": "MPRIS2",
        "Name[ru]": "MPRIS2",
        "Name[sk]": "MPRIS2",
        "Name[sl]": "MPRIS2",
        "Name[sr@ijekavian]": "МПРИС 2",
        "Name[sr@ijekavianlatin]": "MPRIS 2",
        "Name[sr@latin]": "MPRIS 2",
        "Name[sr]": "МПРИС 2",
        "Name[sv]": "MPRIS2",
        "Name[ta]": "MPRIS2",
        "Name[tg]": "MPRIS2",
        "Name[tr]": "MPRIS2",
        "Name[uk]": "MPRIS2",
        "Name[vi]": "MPRIS2",
        "Name[x-test]": "xxMPRIS2xx",
        "Name[zh_CN]": "MPRIS2",
        "Name[zh_TW]": "MPRIS2",
        "Website": "https://kde.org/plasma-desktop"
    }
}
